Appendix 2: Brownian Motion Simulation
…
Effect sizes

Statistical significance is only one part of the story. For instance, a difference in complexity values might be statistically significant, but so small that it is negligible for any theorizing. In fact, it is sometimes argued that effect sizes  rather than p-values  should be the aim of statistical inquiry (Cahusac 2020, p.12-15). An overview of effect size measures per statistical test is given in Patil (2020). In conjunction with the t-test we here use Cohens d (i.e.function cohens_d() of the rstatix package). (Note: the d estimate given by this function can be negative. However, the sign is not relevant here, only the absolute value.)

effect.sizes <- cohens_d(simulation.df.long, value ~ language, paired = T)
print(effect.sizes)

## # A tibble: 28 x 7
##    .y.   group1  group2    effsize    n1    n2 magnitude 
##  * <chr> <chr>   <chr>       <dbl> <int> <int> <ord>     
##  1 value Dutch   English  -0.277      20    20 small     
##  2 value Dutch   French   -0.182      20    20 negligible
##  3 value Dutch   German   -0.163      20    20 negligible
##  4 value Dutch   Italian  -0.264      20    20 small     
##  5 value Dutch   Romanian -0.183      20    20 negligible
##  6 value Dutch   Spanish  -0.434      20    20 small     
##  7 value Dutch   Swedish  -0.0247     20    20 negligible
##  8 value English French   -0.00948    20    20 negligible
##  9 value English German    0.116      20    20 negligible
## 10 value English Italian  -0.0889     20    20 negligible
## #  with 18 more rows
…
