Appendix 3: Meta-Analyses of Kolmogorov Complexity
…
Effect Size

Statistical significance is only one part of the story. For instance, a difference in complexity values might be statistically significant, but so small that it is negligible for any theorizing. In fact, it is sometimes argued that effect sizes - rather than p-values - should be the aim of statistical inquiry (Cahusac 2020, p.12-15). An overview of effect size measures per statistical test is given in Patil (2020). In conjunction with the Wilcoxon signed rank test we here use the statistic r (i.e.function wilcox_effsize() of the rstatix package).

effect.sizes <- wilcox_effsize(results.long, value ~ language, paired = T)
print(effect.sizes)

## # A tibble: 45 x 7
##    .y.   group1  group2    effsize    n1    n2 magnitude
##  * <chr> <chr>   <chr>       <dbl> <int> <int> <ord>    
##  1 value dutch   english     0.818    20    20 large    
##  2 value dutch   finnish     0.877    20    20 large    
##  3 value dutch   french      0.167    20    20 small    
##  4 value dutch   german      0.801    20    20 large    
##  5 value dutch   hungarian   0.868    20    20 large    
##  6 value dutch   italian     0.309    20    20 moderate 
##  7 value dutch   romanian    0.868    20    20 large    
##  8 value dutch   spanish     0.200    20    20 small    
##  9 value dutch   swedish     0.284    20    20 small    
## 10 value english finnish     0.877    20    20 large    
## #  with 35 more rows
…
